…
``` r
weight_2 <- weight %>% 
  pivot_longer(                          
    Raisin:Standard,
    names_to = "Dog", 
    values_to = "Weight") %>% 
  mutate(
    Dog = factor(Dog),
  )

weight_2
```

    ## # A tibble: 1,444 × 3
    ##    date       Dog      Weight
    ##    <date>     <fct>     <dbl>
    ##  1 2018-08-12 Raisin     19.8
    ##  2 2018-08-12 Simone     10.9
    ##  3 2018-08-12 Gagne      10.6
    ##  4 2018-08-12 Standard   NA  
    ##  5 2018-08-19 Raisin     20.2
    ##  6 2018-08-19 Simone     11.1
    ##  7 2018-08-19 Gagne      10.8
    ##  8 2018-08-19 Standard   21.0
    ##  9 2018-08-22 Raisin     20.2
    ## 10 2018-08-22 Simone     11.2
    ## # … with 1,434 more rows
…
Extract last column and bind with the date

``` r
raw_data_note <- read_excel("./data/dogweights_07may2022.xlsx",range = "G2:G363") 
```

    ## New names:
    ## • `` -> `...1`

``` r
raw_data_note
```

    ## # A tibble: 361 × 1
    ##    ...1                                     
    ##    <chr>                                    
    ##  1 <NA>                                     
    ##  2 <NA>                                     
    ##  3 <NA>                                     
    ##  4 <NA>                                     
    ##  5 Right after leaving for 3 days at Weber's
    ##  6 <NA>                                     
    ##  7 <NA>                                     
    ##  8 <NA>                                     
    ##  9 <NA>                                     
    ## 10 <NA>                                     
    ## # … with 351 more rows

``` r
date <- weight[,1] # use the date in the weight dataframe
date
```

    ## # A tibble: 361 × 1
    ##    date      
    ##    <date>    
    ##  1 2018-08-12
    ##  2 2018-08-19
    ##  3 2018-08-22
    ##  4 2018-08-24
    ##  5 2018-08-27
    ##  6 2018-08-28
    ##  7 2018-08-29
    ##  8 2018-08-30
    ##  9 2018-08-31
    ## 10 2018-09-01
    ## # … with 351 more rows

``` r
note <- bind_cols(date,raw_data_note)
```

    ## New names:
    ## • `...1` -> `...2`

``` r
colnames(note)[2] <- "Notes"

note
```

    ## # A tibble: 361 × 2
    ##    date       Notes                                    
    ##    <date>     <chr>                                    
    ##  1 2018-08-12 <NA>                                     
    ##  2 2018-08-19 <NA>                                     
    ##  3 2018-08-22 <NA>                                     
    ##  4 2018-08-24 <NA>                                     
    ##  5 2018-08-27 Right after leaving for 3 days at Weber's
    ##  6 2018-08-28 <NA>                                     
    ##  7 2018-08-29 <NA>                                     
    ##  8 2018-08-30 <NA>                                     
    ##  9 2018-08-31 <NA>                                     
    ## 10 2018-09-01 <NA>                                     
    ## # … with 351 more rows
…
